…
    ## [1] "DHP_E01" "TAN_A15"

## Plot lat/long of species richness per site ———————–

``` r
sp_lat <- sp_rec %>% 
  group_by(Camera.Site) %>% 
  summarise(No_spp = n_distinct(Common.Name), 
            events = n())
sp_lat
```

    ## # A tibble: 375 x 3
    ##    Camera.Site No_spp events
    ##    <chr>        <int>  <int>
    ##  1 APN_K011         8     48
    ##  2 APN_K012        10     50
    ##  3 APN_K013        11     82
    ##  4 APN_K014         6     18
    ##  5 APN_K021        12    105
    ##  6 APN_K023        15    111
    ##  7 APN_K024        12     62
    ##  8 APN_K034        13     83
    ##  9 APN_K041        10     80
    ## 10 APN_K044         8    102
    ## # ... with 365 more rows
…
